^C:\PROGRAMMING\CPLUSPLUS\2013SPRING\PROJECT3\PROJECT3\SOURCE.CPP
C:\PROGRAMMING\CPLUSPLUS\2013SPRING\PROJECT3\PROJECT3\DEBUG\SOURCE.OBJ
C:\PROGRAMMING\CPLUSPLUS\2013SPRING\PROJECT3\PROJECT3\DEBUG\VC110.PDB
