^C:\PROGRAMMING\CPLUSPLUS\2013SPRING\PROJECT3\PROJECT3\DEBUG\SOURCE.OBJ
C:\PROGRAMMING\CPLUSPLUS\2013SPRING\PROJECT3\DEBUG\PROJECT3.ILK
C:\PROGRAMMING\CPLUSPLUS\2013SPRING\PROJECT3\DEBUG\PROJECT3.EXE
C:\PROGRAMMING\CPLUSPLUS\2013SPRING\PROJECT3\DEBUG\PROJECT3.PDB
